…
    [1] 92

The variable with the lowest number of distinct values, `Sodium`, has 20
distinct values, so the data meets the this criteria, and should be
suitable for the following analyses.

# The Tidy Tibble

## Listing the Tibble

The following code lists the first 10 rows of the tibble:

    analysis_data

    # A tibble: 1,200 x 8
       Subject_ID Systolic_BP High_BP   Age Sodium Potassium Insomnia Milk          
            <dbl>       <dbl> <fct>   <dbl>  <dbl>     <dbl> <fct>    <fct>         
     1      95380         122 No         62    138       4.3 No       Soy or Other ~
     2      98905          NA Yes        63    137       4.5 Yes      <NA>          
     3      99128         105 No         36    143       3.9 No       2% Milk       
     4      94105         107 No         46    144       4.1 No       2% Milk       
     5     101756         110 Yes        61    140       3.6 No       Whole Milk    
     6      97319         123 Yes        32    139       4.1 No       Whole Milk    
     7     101001         145 No         67    144       4.4 No       Soy or Other ~
     8      95330         124 Yes        77    137       3.9 Yes      Soy or Other ~
     9      94525          NA Yes        66    141       4   No       2% Milk       
    10     101336         147 No         72    145       4.3 No       2% Milk       
    # ... with 1,190 more rows
…
    analysis_data %$% n_distinct(Systolic_BP)

    [1] 92

This code produces a tibble showing all of the unique values, counting
how many times each one occurs:

    analysis_data %>% count(Systolic_BP)

    # A tibble: 92 x 2
       Systolic_BP     n
             <dbl> <int>
     1          73     1
     2          88     1
     3          89     5
     4          90     5
     5          91     2
     6          92     4
     7          93     6
     8          94     7
     9          95     9
    10          96    10
    # ... with 82 more rows
…
    analysis_data %$% n_distinct(Sodium)

    [1] 20

    analysis_data %$% n_distinct(Potassium)

    [1] 29

As with the outcome variable `Systolic_BP` shown above, the following
code produces a tibble for each, each showing all of the unique values
and counting how many times each one occurs:

    analysis_data %>% count(Age)

    # A tibble: 62 x 2
         Age     n
       <dbl> <int>
     1    18    32
     2    19    26
     3    20    17
     4    21    16
     5    22    20
     6    23    24
     7    24    17
     8    25    16
     9    26    24
    10    27    15
    # ... with 52 more rows
…
    analysis_data %>% count(Potassium)

    # A tibble: 29 x 2
       Potassium     n
           <dbl> <int>
     1       2.9     2
     2       3       3
     3       3.1     2
     4       3.2     3
     5       3.3     9
     6       3.4    19
     7       3.5    30
     8       3.6    45
     9       3.7    72
    10       3.8   102
    # ... with 19 more rows
…
